…
## What is the total number of steps taken per day?

**1. Calculate the total number of steps taken per day**


```r
stepsPerDay <- data.raw %>%
        group_by(date) %>%
        summarise(across(steps, sum)) %>%
        filter(!is.na(steps))
stepsPerDay
```

```
## # A tibble: 53 × 2
##    date       steps
##    <date>     <int>
##  1 2012-10-02   126
##  2 2012-10-03 11352
##  3 2012-10-04 12116
##  4 2012-10-05 13294
##  5 2012-10-06 15420
##  6 2012-10-07 11015
##  7 2012-10-09 12811
##  8 2012-10-10  9900
##  9 2012-10-11 10304
## 10 2012-10-12 17382
## # … with 43 more rows
## # ℹ Use `print(n = ...)` to see more rows
```
…
## What is the average daily activity pattern?

**1. Make a time series plot (i.e. type = "l") of the 5-minute interval (x-axis) and the average number of steps taken, averaged across all days (y-axis)**


```r
dailyPattern <- data.raw %>%
        group_by(time) %>%
        filter(!is.na(steps)) %>%
        summarise(across(steps, mean, rm.NA = TRUE))
dailyPattern
```

```
## # A tibble: 288 × 2
##    time      steps
##    <times>   <dbl>
##  1 00:00:00 1.72  
##  2 00:05:00 0.340 
##  3 00:10:00 0.132 
##  4 00:15:00 0.151 
##  5 00:20:00 0.0755
##  6 00:25:00 2.09  
##  7 00:30:00 0.528 
##  8 00:35:00 0.868 
##  9 00:40:00 0     
## 10 00:45:00 1.47  
## # … with 278 more rows
## # ℹ Use `print(n = ...)` to see more rows
```
…
```
## The following objects are masked from 'package:base':
## 
##     date, intersect, setdiff, union
```

```r
missingValsPerInterval <- data.raw %>%
        group_by(time) %>%
        dplyr::summarise(count_NA = sum(is.na(steps)))
missingValsPerInterval
```

```
## # A tibble: 288 × 2
##    time     count_NA
##    <times>     <int>
##  1 00:00:00        8
##  2 00:05:00        8
##  3 00:10:00        8
##  4 00:15:00        8
##  5 00:20:00        8
##  6 00:25:00        8
##  7 00:30:00        8
##  8 00:35:00        8
##  9 00:40:00        8
## 10 00:45:00        8
## # … with 278 more rows
## # ℹ Use `print(n = ...)` to see more rows
```
…
```r
#Calculate the total number of steps taken per day
stepsPerDay2 <- data_missingImputed %>%
        group_by(date) %>%
        summarise(across(steps, sum)) %>%
        filter(!is.na(steps))
stepsPerDay2
```

```
## # A tibble: 61 × 2
##    date        steps
##    <date>      <dbl>
##  1 2012-10-01  9975.
##  2 2012-10-02   126 
##  3 2012-10-03 11352 
##  4 2012-10-04 12116 
##  5 2012-10-05 13294 
##  6 2012-10-06 15420 
##  7 2012-10-07 11015 
##  8 2012-10-08  9975.
##  9 2012-10-09 12811 
## 10 2012-10-10  9900 
## # … with 51 more rows
## # ℹ Use `print(n = ...)` to see more rows
```
…
```
## `summarise()` has grouped output by 'interval'. You can override using the
## `.groups` argument.
```

```r
data_dayTypePlot
```

```
## # A tibble: 576 × 3
## # Groups:   interval [288]
##    interval dayType              steps
##       <int> <fct>                <dbl>
##  1        0 average weekday     2.31  
##  2        0 average weekend day 0     
##  3        5 average weekday     0.45  
##  4        5 average weekend day 0     
##  5       10 average weekday     0.175 
##  6       10 average weekend day 0     
##  7       15 average weekday     0.2   
##  8       15 average weekend day 0     
##  9       20 average weekday     0.0889
## 10       20 average weekend day 0     
## # … with 566 more rows
## # ℹ Use `print(n = ...)` to see more rows
```
…
